product,Total_Spend,Company_Name,Industry,Employee_Count,Country,domain
Amazon EC2,0-1000, American Postal Workers Union ,Labor Unions and Similar ...,"10,001+",US,apwu.org
Amazon EC2,0-1000,Medical Device Technology Exch...,Pharmaceuticals and Biote...,"10,001+",US,mdtxevent.com
Amazon EC2,0-1000,Main Event Entertainment,Entertainment,"1,001-5,000",US,mainevent.com
Amazon EC2,0-1000,CareerForceMN,Government Administration,"1,001-5,000",US,careerforcemn.com
Amazon EC2,0-1000,Crisis Text Line,Nonprofit Organization Ma...,"1,001-5,000",US,crisistextline.org
Amazon EC2,0-1000,National Financial Network,Financial Services,"1,001-5,000",US,nbbn.ca
Amazon EC2,0-1000,Cancer Therapy Advisor,Media and Publishing,"1,001-5,000",US,cancertherapyadvisor.com
Amazon EC2,0-1000,United Cerebral Palsy,Nonprofit Organization,"1,001-5,000",US,ucpnyc.org
Amazon EC2,0-1000,Northcott Hospitality,Travel and Hospitality,"1,001-5,000",US,northcottco.com
Amazon EC2,0-1000,CIRCOR Energy,Energy,"1,001-5,000",US,circor.com
Amazon EC2,0-1000,nVent Thermal Management,Manufacturing,"1,001-5,000",US,nventthermal.com
Amazon EC2,0-1000,Utkarsh Small Finance Bank,Banking,"1,001-5,000",IN,utkarsh.bank
Amazon EC2,0-1000,Jobmedic,"Health, Wellness, and Fit...","1,001-5,000",GB,jobmedic.co.uk
Amazon EC2,0-1000,The Adecco Group UK and Irelan...,Human Resources,"1,001-5,000",GB,adeccogroup.co.uk
Amazon EC2,0-1000,Eurostar,Travel and Hospitality,"1,001-5,000",GB,eurostar.com
Amazon EC2,0-1000,ICP (International Consumer Products),Consumer Goods,"501-1,000",VN,cpvn.com
Amazon EC2,0-1000,Milford Regional Medical Cente...,"Health, Wellness, and Fit...","501-1,000",US,milfordregional.org
Amazon EC2,0-1000,Curtis Squire,Investment Management,"501-1,000",US,Curtissquire.com
Amazon EC2,0-1000,The Medicines Co.,Pharmaceuticals and Biote...,"501-1,000",US,novartis.com
Amazon EC2,0-1000,.Com Marketing,Marketing and Advertising,"501-1,000",US,
Amazon EC2,1000-5000,FAST RETAILING CO.,Retail,"10,001+",JP,fastretailing.co.jp
Amazon EC2,1000-5000,Long Realty Company,Real Estate,"1,001-5,000",US,LongRealty.com
Amazon EC2,1000-5000,GAB Robins,Insurance,"1,001-5,000",US,gabrobins.com
Amazon EC2,1000-5000,IPE Global,Management Consulting,"1,001-5,000",IN,ipeglobal.com
Amazon EC2,1000-5000,Maryland Jockey Club,Sports,"1,001-5,000",CA,marylandracing.com
Amazon EC2,1000-5000,HomeTeam Pest Defense,Consumer Services,"501-1,000",US,pestdefense.com
Amazon EC2,1000-5000,Merisant Co,Electrical & Electronic M...,"501-1,000",US,merisant.com
Amazon EC2,1000-5000,Bariatric Advantage,"Health, Wellness, and Fit...","501-1,000",US,bariatricadvantage.com
Amazon EC2,1000-5000,Collezione,Retail,"501-1,000",TR,collezione.com
Amazon EC2,1000-5000,Almajdouie Holding,Logistics and Supply Chai...,"501-1,000",SA,almajdouie.com
Amazon EC2,1000-5000,Corghi SpA,Automotive,"501-1,000",IT,corghiusa.us
Amazon EC2,1000-5000,Norwich University Of The Arts,Education,"501-1,000",GB,nua.ac.uk
Amazon EC2,1000-5000,Go Outdoors Ltd.,Logistics and Supply Chai...,"501-1,000",GB,gooutdoors.co.uk
Amazon EC2,1000-5000,Incisive Media,Media and Publishing,"501-1,000",GB,incisivemedia.com
Amazon EC2,1000-5000,Smyth Companies,Graphic Design and Printi...,201-500,US,smythco.com
Amazon EC2,1000-5000,Stylesight,Mens and Boys Clothing an...,201-500,US,wgsn.com
Amazon EC2,1000-5000,First Choice Loan Services,Financial Services,201-500,US,fcloans.com
Amazon EC2,1000-5000,Agile Defense,Information Technology an...,201-500,US,agile-defense.com
Amazon EC2,1000-5000,"The Sandbox Agency, formerly G...",Marketing and Advertising,201-500,US,sandboxww.com
Amazon EC2,1000-5000,Society of Actuaries,Insurance,201-500,US,soa.org
Amazon EC2,5000-20000,Somany Ceramics,Building Materials,"1,001-5,000",IN,somanyceramics.com
Amazon EC2,5000-20000,Specialty Sports Venture,Retail,"501-1,000",US,ssv.net
Amazon EC2,5000-20000,Huuuge Games,Computer Games,"501-1,000",PL,huuugegames.com
Amazon EC2,5000-20000,Aaj TV,Broadcast Media,"501-1,000",PK,aaj.tv
Amazon EC2,5000-20000,Kathmandu,Retail,"501-1,000",NZ,kathmandu.co.nz
Amazon EC2,5000-20000,Maddocks,Legal Services,"501-1,000",AU,maddocks.com.au
Amazon EC2,5000-20000,WOODLAND HILLS SCHOOL DISTRICT,Education,201-500,US,whsd.net
Amazon EC2,5000-20000,Aerie Pharmaceuticals,Pharmaceuticals and Biote...,201-500,US,aeriepharma.com
Amazon EC2,5000-20000,Sares-Regis Group,Real Estate,201-500,US,sares-regis.com
Amazon EC2,5000-20000,SmartFocus UK Ltd.,Computer Software,201-500,GB,smartfocus.com
Amazon EC2,5000-20000,New York Compensation Insuranc...,Insurance,51-200,US,nycirb.org
Amazon EC2,5000-20000,Intersocietal Accreditation Co...,"Health, Wellness, and Fit...",51-200,US,intersocietal.org
Amazon EC2,5000-20000,United Hospital Fund of New Yo...,Government Administration,51-200,US,uhfnyc.org
Amazon EC2,5000-20000,Green Bits,Computer Software,51-200,US,greenbits.com
Amazon EC2,5000-20000,City Of Antioch,Government Administration,51-200,US,antioch.ca.us
Amazon EC2,5000-20000,Human Longevity,Pharmaceuticals and Biote...,51-200,US,healthnucleus.com
Amazon EC2,5000-20000,White Arrow,Transport and Shipping,51-200,US,whitearrow.com
Amazon EC2,5000-20000,Alex's Lemonade Stand Foundati...,"Health, Wellness, and Fit...",51-200,US,alexslemonade.org
Amazon EC2,5000-20000,Tulley Automotive Group,Automotive,51-200,US,tulley.com
Amazon EC2,5000-20000,Avantas,Computer Software,51-200,US,avantas.com
Amazon EC2,20000-50000,GardaWorld,Security and Investigatio...,"5,001-10,000",AE,garda.com
Amazon EC2,20000-50000,Al-Khair Group of Companies,Furniture,"5,001-10,000",Nan,alkhairsociety.com
Amazon EC2,20000-50000,W. R. Grace & Co.,Chemicals,"1,001-5,000",US,grace.com
Amazon EC2,20000-50000,mcbgroup,Financial Services,"1,001-5,000",MU,mcbgroup.com
Amazon EC2,20000-50000,CHU de Nantes,"Health, Wellness, and Fit...","1,001-5,000",FR,ch-lemans.fr
Amazon EC2,20000-50000,Independent Bank,Banking,"501-1,000",US,independentbank.com
Amazon EC2,20000-50000,Atlanta Hawks,Sports,"501-1,000",US,hawks.com
Amazon EC2,20000-50000,Digisurf,Internet,"501-1,000",US,digisurf.net
Amazon EC2,20000-50000,Cairn University,"Colleges, Universities, a...",201-500,US,cairn.edu
Amazon EC2,20000-50000,ACG Education,Education,201-500,NZ,campbell.ac.nz
Amazon EC2,20000-50000,Redpack,Logistics and Supply Chai...,201-500,MX,redpack.com.mx
Amazon EC2,20000-50000,Alticast,Consumer Electronics,201-500,KR,alticast.com
Amazon EC2,20000-50000,Discount Drug Stores,Pharmaceuticals and Biote...,201-500,AU,discountdrugstores.com.au
Amazon EC2,20000-50000,SkyOne Federal Credit Union,Financial Services,51-200,US,skyone.org
Amazon EC2,20000-50000,Blueline Software Services,"Software, Internet & Comp...",51-200,US,blueliness.com
Amazon EC2,20000-50000,MCN Journal,Insurance,51-200,US,mcnjournal.com
Amazon EC2,20000-50000,Spex,Consumer Goods,51-200,US,spexoptical.com
Amazon EC2,20000-50000,Zetera,Computer Software,51-200,US,zetera.com
Amazon EC2,20000-50000,Immigration & Checkpoints Auth...,Government Administration,51-200,SG,ica.gov.sg
Amazon EC2,20000-50000,aldingha.be,NOT AVAILABLE,51-200,NL,aldingha.be
Amazon EC2,50000-100000,"Home Properties, Inc.",Real Estate,"1,001-5,000",US,homeproperties.com
Amazon EC2,50000-100000,Alpha Systems,Information Technology an...,"1,001-5,000",JP,alpha.co.jp
Amazon EC2,50000-100000,Byline Bank,Financial Services,"501-1,000",US,bylinebank.com
Amazon EC2,50000-100000,Universidad de los Andes (CL),Education,"501-1,000",CL,uandes.cl
Amazon EC2,50000-100000,LifeWorks,Human Resources,201-500,US,lifeworks.com
Amazon EC2,50000-100000,Brooklyn Academy of Music,Nonprofit Organization,201-500,US,bam.org
Amazon EC2,50000-100000,Calanceus,Information Technology an...,201-500,US,calanceus.com/
Amazon EC2,50000-100000,Newman University (Uk),Education,201-500,GB,newman.ac.uk
Amazon EC2,50000-100000,Ataccama,Computer Software,201-500,CA,ataccama.com
Amazon EC2,50000-100000,sh-env.net,NOT AVAILABLE,51-200,US,sh-env.net
Amazon EC2,50000-100000,Webinato,Information Technology an...,51-200,US,webinato.com
Amazon EC2,50000-100000,Silver Star Communications - F...,Telecommunications,51-200,US,silverstar.com
Amazon EC2,50000-100000,Concordia Publishing House,Media and Publishing,51-200,US,cph.org
Amazon EC2,50000-100000,ACON Laboratories,Pharmaceuticals and Biote...,51-200,US,aconlabs.com
Amazon EC2,50000-100000,LeasePlan Information Services,Information Technology an...,51-200,IE,leaseplanauctions.com
Amazon EC2,50000-100000,Insurance Institute of Canada,Insurance,51-200,CA,insuranceinstitute.ca
Amazon EC2,50000-100000,El Rey Jesus Miami,Internet,11-50,US,elreyjesus.org
Amazon EC2,50000-100000,Punchmark,Computer Software,11-50,US,punchmark.com
Amazon EC2,50000-100000,Kb Insurance Co.,Insurance,11-50,KR,kbinsure.co.kr 
Amazon EC2,50000-100000,Imobiliária Junqueira,Real Estate,11-50,BR,imobiliariajunqueira.com.br
Amazon EC2,100000-500000,T-Mobile Nederland,Telecommunications,"1,001-5,000",NL,t-mobile.nl
Amazon EC2,100000-500000,Chemed,Consumer Services,"5,001-10,000",US,chemed.com
Amazon EC2,100000-500000,Federal Judicial Center,Government Administration,51-200,US,fjc.gov
Amazon EC2,100000-500000,Neopets,Entertainment,11-50,US,neopets.com
Amazon EC2,100000-500000,Gracenote,Entertainment,"1,001-5,000",US,gracenote.com
Amazon EC2,100000-500000,EMPLOY,Human Resources,201-500,AU,
Amazon EC2,100000-500000,JamaicaObserver,Internet,1,US,ETRN.com
Amazon EC2,100000-500000,McKinsey Solutions (part of Mc...,Management Consulting,"501-1,000",US,mckinseysolutions.com
Amazon EC2,100000-500000,Zamzar,Computer Software,2-10,GB,zamzar.com
Amazon EC2,100000-500000,Stryker Corp.,"Health, Wellness, and Fit...","10,001+",US,stryker.com
Amazon EC2,100000-500000,Regus,Facilities Services,"5,001-10,000",US,regus.com
Amazon EC2,100000-500000,DELFI Eesti,Internet,1,EE,delfi.ee
Amazon EC2,100000-500000,Corporación Digitel,Telecommunications,"1,001-5,000",VE,digitel.com.ve
Amazon EC2,100000-500000,Northrop Grumman,Defense,"10,001+",US,northropgrumman.com
Amazon EC2,100000-500000,2 Alianças Logística Sob Medid...,Logistics and Supply Chai...,51-200,BR,2aliancas.com.br
Amazon EC2,100000-500000,Comscentre,Telecommunications,51-200,AU,comscentre.com
Amazon EC2,100000-500000,The National Museum of Toys an...,Nonprofit Organization,11-50,US,toyandminiaturemuseum.org 
Amazon EC2,100000-500000,Gannett | USA TODAY NETWORK,Media and Publishing,"5,001-10,000",US,gannett.com
Amazon EC2,100000-500000,Mediacom Communications Corp.,Telecommunications,"1,001-5,000",US,mediacomcable.com
Amazon EC2,100000-500000,PUBG,Online Gaming,"501-1,000",KR,pubg.com
Amazon EC2,500000+,Google Inc.,Internet,"10,001+",US,google.com
Amazon EC2,500000+,Microsoft,Internet,"10,001+",US,microsoft.com
Amazon EC2,500000+,Verizon,Computer Software,"10,001+",US,verizon.com
Amazon EC2,500000+,Tencent,Internet,"10,001+",CN,tencent.com
Amazon EC2,500000+,YouTube,Marketing and Advertising,"10,001+",US,youtube.com
Amazon EC2,500000+,Yahoo,Marketing and Advertising,"5,001-10,000",US,yahoo.com
Amazon EC2,500000+,CenturyLink,Information Technology an...,"10,001+",US,centurylink.com
Amazon EC2,500000+,Baidu,Internet,"10,001+",CN,baidu.com
Amazon EC2,500000+,Adobe,Computer Software,"10,001+",US,adobe.com
Amazon EC2,500000+,NTT,Information Technology An...,"10,001+",GB,nttdata.com
Amazon EC2,500000+,SAP,Computer Software,"10,001+",DE,sap.com
Amazon EC2,500000+,Qihoo 360,Internet,"1,001-5,000",CN,360.cn
Amazon EC2,500000+,"Facebook, Inc.",Internet,"10,001+",US,facebook.com
Amazon EC2,500000+,News Corp,Broadcast Media,"1,001-5,000",US,newscorp.com
Amazon EC2,500000+,"Level 3 Communications, Inc.",Telecommunications,"10,001+",US,centurylink.com
Amazon EC2,500000+,Wikipedia,Internet,"501-1,000",US,wikimediafoundation.org
Amazon EC2,500000+,Oracle,Marketing and Advertising,"10,001+",US,oracle.com
Amazon EC2,500000+,Intel,Management,"10,001+",US,intel.com
Amazon EC2,500000+,NAVER,Internet,"1,001-5,000",KR,navercorp.com
Amazon EC2,500000+,AOL Advertising,Marketing and Advertising,"1,001-5,000",US,advertising.aol.com